ISO-10303-21;
HEADER;
FILE_DESCRIPTION (( 'STEP AP214' ),
    '1' );
FILE_NAME ('endstop mounting.STEP',
    '2020-03-25T13:48:47',
    ( '' ),
    ( '' ),
    'SwSTEP 2.0',
    'SolidWorks 2018',
    '' );
FILE_SCHEMA (( 'AUTOMOTIVE_DESIGN' ));
ENDSEC;

DATA;
#1 = VERTEX_POINT ( 'NONE', #226 ) ;
#2 = DIRECTION ( 'NONE',  ( 0.0000000000000000000, 0.0000000000000000000, -1.000000000000000000 ) ) ;
#3 = ORIENTED_EDGE ( 'NONE', *, *, #523, .T. ) ;
#4 = LINE ( 'NONE', #568, #332 ) ;
#5 = VERTEX_POINT ( 'NONE', #607 ) ;
#6 = ORIENTED_EDGE ( 'NONE', *, *, #449, .T. ) ;
#7 = DIRECTION ( 'NONE',  ( 0.0000000000000000000, 0.0000000000000000000, -1.000000000000000000 ) ) ;
#8 = CARTESIAN_POINT ( 'NONE',  ( 0.0000000000000000000, 3.000000000000000000, 0.0000000000000000000 ) ) ;
#9 = EDGE_CURVE ( 'NONE', #532, #47, #109, .T. ) ;
#10 = ORIENTED_EDGE ( 'NONE', *, *, #35, .T. ) ;
#11 = CARTESIAN_POINT ( 'NONE',  ( 16.39999999999999858, 5.000000000000000000, 27.99999999999999645 ) ) ;
#12 = DIRECTION ( 'NONE',  ( -0.0000000000000000000, -0.0000000000000000000, -1.000000000000000000 ) ) ;
#13 = DIRECTION ( 'NONE',  ( 0.0000000000000000000, 0.0000000000000000000, 1.000000000000000000 ) ) ;
#14 = CARTESIAN_POINT ( 'NONE',  ( 0.0000000000000000000, 3.000000000000000000, 30.00000000000000000 ) ) ;
#15 = ORIENTED_EDGE ( 'NONE', *, *, #529, .T. ) ;
#16 = FACE_BOUND ( 'NONE', #565, .T. ) ;
#17 = ORIENTED_EDGE ( 'NONE', *, *, #110, .T. ) ;
#18 = VECTOR ( 'NONE', #37, 1000.000000000000000 ) ;
#19 = DIRECTION ( 'NONE',  ( 0.0000000000000000000, 1.000000000000000000, 0.0000000000000000000 ) ) ;
#20 = EDGE_CURVE ( 'NONE', #194, #241, #435, .T. ) ;
#21 = DIRECTION ( 'NONE',  ( 1.000000000000000000, 0.0000000000000000000, 0.0000000000000000000 ) ) ;
#22 = FACE_OUTER_BOUND ( 'NONE', #359, .T. ) ;
#23 = CARTESIAN_POINT ( 'NONE',  ( 0.6909830056250522157, 3.000000000000000000, 30.00000000000000000 ) ) ;
#24 = LINE ( 'NONE', #682, #594 ) ;
#25 = AXIS2_PLACEMENT_3D ( 'NONE', #143, #726, #365 ) ;
#26 = FACE_OUTER_BOUND ( 'NONE', #328, .T. ) ;
#27 = UNCERTAINTY_MEASURE_WITH_UNIT (LENGTH_MEASURE( 1.000000000000000082E-05 ), #254, 'distance_accuracy_value', 'NONE');
#28 = CARTESIAN_POINT ( 'NONE',  ( -1.599999999999998535, 0.0000000000000000000, 30.00000000000000000 ) ) ;
#29 = CYLINDRICAL_SURFACE ( 'NONE', #48, 0.4999999999999998890 ) ;
#30 = ORIENTED_EDGE ( 'NONE', *, *, #566, .F. ) ;
#31 = AXIS2_PLACEMENT_3D ( 'NONE', #422, #202, #256 ) ;
#32 = FILL_AREA_STYLE_COLOUR ( '', #322 ) ;
#33 = CARTESIAN_POINT ( 'NONE',  ( 0.0000000000000000000, 5.000000000000000000, 8.000000000000000000 ) ) ;
#34 = ADVANCED_FACE ( 'NONE', ( #26 ), #340, .T. ) ;
#35 = EDGE_CURVE ( 'NONE', #310, #157, #24, .T. ) ;
#36 = ORIENTED_EDGE ( 'NONE', *, *, #740, .T. ) ;
#37 = DIRECTION ( 'NONE',  ( 0.0000000000000000000, 0.0000000000000000000, 1.000000000000000000 ) ) ;
#38 = ORIENTED_EDGE ( 'NONE', *, *, #640, .F. ) ;
#39 = DIRECTION ( 'NONE',  ( 1.000000000000000000, 3.469446951953611033E-15, 0.0000000000000000000 ) ) ;
#40 = LINE ( 'NONE', #493, #709 ) ;
#41 = APPLICATION_PROTOCOL_DEFINITION ( 'draft international standard', 'automotive_design', 1998, #731 ) ;
#42 = CARTESIAN_POINT ( 'NONE',  ( 14.43819660112501246, 0.7236067977499788251, 0.0000000000000000000 ) ) ;
#43 = ADVANCED_FACE ( 'NONE', ( #393 ), #77, .F. ) ;
#44 = VECTOR ( 'NONE', #411, 1000.000000000000000 ) ;
#45 = DIRECTION ( 'NONE',  ( -0.0000000000000000000, 0.0000000000000000000, 1.000000000000000000 ) ) ;
#46 = ADVANCED_FACE ( 'NONE', ( #452 ), #613, .F. ) ;
#47 = VERTEX_POINT ( 'NONE', #167 ) ;
#48 = AXIS2_PLACEMENT_3D ( 'NONE', #501, #392, #681 ) ;
#49 = LINE ( 'NONE', #74, #287 ) ;
#50 = CYLINDRICAL_SURFACE ( 'NONE', #171, 0.5000000000000004441 ) ;
#51 = EDGE_CURVE ( 'NONE', #701, #463, #57, .T. ) ;
#52 = CARTESIAN_POINT ( 'NONE',  ( 0.3618033988749893015, 0.7236067977499789361, 0.0000000000000000000 ) ) ;
#53 = EDGE_CURVE ( 'NONE', #354, #710, #582, .T. ) ;
#54 = EDGE_LOOP ( 'NONE', ( #350, #134, #196, #596 ) ) ;
#55 = ORIENTED_EDGE ( 'NONE', *, *, #104, .F. ) ;
#56 = CARTESIAN_POINT ( 'NONE',  ( 0.8090169943749472292, 0.0000000000000000000, 30.00000000000000000 ) ) ;
#57 = LINE ( 'NONE', #514, #480 ) ;
#58 = CARTESIAN_POINT ( 'NONE',  ( -1.599999999999998535, 5.000000000000000000, 27.99999999999999645 ) ) ;
#59 = LINE ( 'NONE', #743, #377 ) ;
#60 = DIRECTION ( 'NONE',  ( 0.0000000000000000000, -0.0000000000000000000, -1.000000000000000000 ) ) ;
#61 = LINE ( 'NONE', #535, #162 ) ;
#62 = DIRECTION ( 'NONE',  ( 0.0000000000000000000, -0.0000000000000000000, -1.000000000000000000 ) ) ;
#63 = CARTESIAN_POINT ( 'NONE',  ( 0.6909830056250522157, 3.000000000000000000, 0.0000000000000000000 ) ) ;
#64 = PRODUCT_DEFINITION_CONTEXT ( 'detailed design', #731, 'design' ) ;
#65 = CARTESIAN_POINT ( 'NONE',  ( 0.0000000000000000000, 5.000000000000000000, 30.00000000000000000 ) ) ;
#66 = CARTESIAN_POINT ( 'NONE',  ( 7.399999999999999467, 0.0000000000000000000, 4.000000000000000000 ) ) ;
#67 = ORIENTED_EDGE ( 'NONE', *, *, #489, .T. ) ;
#68 = DIRECTION ( 'NONE',  ( 0.0000000000000000000, 1.000000000000000000, 0.0000000000000000000 ) ) ;
#69 = FACE_OUTER_BOUND ( 'NONE', #579, .T. ) ;
#70 = VERTEX_POINT ( 'NONE', #549 ) ;
#71 = DIRECTION ( 'NONE',  ( -0.0000000000000000000, 0.0000000000000000000, 1.000000000000000000 ) ) ;
#72 = EDGE_CURVE ( 'NONE', #465, #241, #705, .T. ) ;
#73 = CARTESIAN_POINT ( 'NONE',  ( -1.599999999999998535, 11.00000000000000000, 27.99999999999999645 ) ) ;
#74 = CARTESIAN_POINT ( 'NONE',  ( 0.0000000000000000000, 0.0000000000000000000, 30.00000000000000000 ) ) ;
#75 = EDGE_LOOP ( 'NONE', ( #333, #192, #525, #606 ) ) ;
#76 = EDGE_CURVE ( 'NONE', #1, #5, #428, .T. ) ;
#77 = CYLINDRICAL_SURFACE ( 'NONE', #346, 1.400000000000000133 ) ;
#78 = CARTESIAN_POINT ( 'NONE',  ( 7.399999999999999467, 11.00000000000000000, 4.000000000000000000 ) ) ;
#79 = PRODUCT_DEFINITION_FORMATION_WITH_SPECIFIED_SOURCE ( 'ANY', '', #432, .NOT_KNOWN. ) ;
#80 = ORIENTED_EDGE ( 'NONE', *, *, #407, .F. ) ;
#81 = DIRECTION ( 'NONE',  ( 0.0000000000000000000, 1.000000000000000000, -0.0000000000000000000 ) ) ;
#82 = AXIS2_PLACEMENT_3D ( 'NONE', #477, #263, #92 ) ;
#83 = ORIENTED_EDGE ( 'NONE', *, *, #125, .T. ) ;
#84 = VECTOR ( 'NONE', #683, 1000.000000000000000 ) ;
#85 = ORIENTED_EDGE ( 'NONE', *, *, #173, .F. ) ;
#86 = EDGE_CURVE ( 'NONE', #495, #142, #616, .T. ) ;
#87 = ORIENTED_EDGE ( 'NONE', *, *, #523, .F. ) ;
#88 = EDGE_CURVE ( 'NONE', #354, #183, #464, .T. ) ;
#89 = CARTESIAN_POINT ( 'NONE',  ( 0.6909830056250522157, 3.000000000000000000, 30.00000000000000000 ) ) ;
#90 = VECTOR ( 'NONE', #572, 1000.000000000000000 ) ;
#91 = EDGE_CURVE ( 'NONE', #557, #136, #230, .T. ) ;
#92 = DIRECTION ( 'NONE',  ( 1.000000000000000000, 0.0000000000000000000, 0.0000000000000000000 ) ) ;
#93 = ADVANCED_FACE ( 'NONE', ( #166 ), #457, .T. ) ;
#94 = ORIENTED_EDGE ( 'NONE', *, *, #599, .T. ) ;
#95 = CIRCLE ( 'NONE', #312, 0.5000000000000000000 ) ;
#96 = AXIS2_PLACEMENT_3D ( 'NONE', #508, #115, #558 ) ;
#97 = DIRECTION ( 'NONE',  ( 1.000000000000000000, 0.0000000000000000000, -0.0000000000000000000 ) ) ;
#98 = ADVANCED_FACE ( 'NONE', ( #193 ), #401, .T. ) ;
#99 = VECTOR ( 'NONE', #147, 1000.000000000000000 ) ;
#100 = SURFACE_STYLE_USAGE ( .BOTH. , #262 ) ;
#101 = ADVANCED_FACE ( 'NONE', ( #16, #604 ), #235, .T. ) ;
#102 = CARTESIAN_POINT ( 'NONE',  ( 16.39999999999999858, 3.000000000000000000, 0.0000000000000000000 ) ) ;
#103 = ORIENTED_EDGE ( 'NONE', *, *, #302, .F. ) ;
#104 = EDGE_CURVE ( 'NONE', #108, #636, #511, .T. ) ;
#105 = PLANE ( 'NONE',  #588 ) ;
#106 = CYLINDRICAL_SURFACE ( 'NONE', #308, 0.5000000000000000000 ) ;
#107 = DIRECTION ( 'NONE',  ( 1.000000000000000000, 0.0000000000000000000, 0.0000000000000000000 ) ) ;
#108 = VERTEX_POINT ( 'NONE', #345 ) ;
#109 = LINE ( 'NONE', #56, #343 ) ;
#110 = EDGE_CURVE ( 'NONE', #540, #180, #211, .T. ) ;
#111 = DIRECTION ( 'NONE',  ( 0.0000000000000000000, -1.000000000000000000, 0.0000000000000000000 ) ) ;
#112 = EDGE_CURVE ( 'NONE', #495, #661, #49, .T. ) ;
#113 = EDGE_CURVE ( 'NONE', #142, #583, #4, .T. ) ;
#114 = DIRECTION ( 'NONE',  ( -0.0000000000000000000, -0.0000000000000000000, -1.000000000000000000 ) ) ;
#115 = DIRECTION ( 'NONE',  ( 0.0000000000000000000, -1.000000000000000000, 0.0000000000000000000 ) ) ;
#116 = DIRECTION ( 'NONE',  ( -1.000000000000000000, 0.0000000000000000000, 0.0000000000000000000 ) ) ;
#117 = ORIENTED_EDGE ( 'NONE', *, *, #696, .F. ) ;
#118 = DIRECTION ( 'NONE',  ( -1.000000000000000000, 0.0000000000000000000, 0.0000000000000000000 ) ) ;
#119 = CARTESIAN_POINT ( 'NONE',  ( 0.8090169943749472292, 0.5000000000000000000, 30.00000000000000000 ) ) ;
#120 = ORIENTED_EDGE ( 'NONE', *, *, #356, .T. ) ;
#121 = CARTESIAN_POINT ( 'NONE',  ( 13.66180339887499251, 2.276393202250020842, 30.00000000000000000 ) ) ;
#122 = EDGE_CURVE ( 'NONE', #661, #108, #472, .T. ) ;
#123 = DIRECTION ( 'NONE',  ( 0.0000000000000000000, -1.000000000000000000, 0.0000000000000000000 ) ) ;
#124 = DIRECTION ( 'NONE',  ( 0.0000000000000000000, -1.000000000000000000, 0.0000000000000000000 ) ) ;
#125 = EDGE_CURVE ( 'NONE', #736, #412, #327, .T. ) ;
#126 = ORIENTED_EDGE ( 'NONE', *, *, #499, .T. ) ;
#127 = ORIENTED_EDGE ( 'NONE', *, *, #496, .F. ) ;
#128 = DIRECTION ( 'NONE',  ( 0.0000000000000000000, 1.000000000000000000, 0.0000000000000000000 ) ) ;
#129 = LINE ( 'NONE', #474, #724 ) ;
#130 = CARTESIAN_POINT ( 'NONE',  ( 0.8090169943749472292, 0.5000000000000000000, 30.00000000000000000 ) ) ;
#131 = DIRECTION ( 'NONE',  ( -1.000000000000000000, 0.0000000000000000000, 0.0000000000000000000 ) ) ;
#132 = LINE ( 'NONE', #182, #641 ) ;
#133 = EDGE_LOOP ( 'NONE', ( #87, #620, #10, #378 ) ) ;
#134 = ORIENTED_EDGE ( 'NONE', *, *, #750, .T. ) ;
#135 = LINE ( 'NONE', #237, #305 ) ;
#136 = VERTEX_POINT ( 'NONE', #631 ) ;
#137 = PRESENTATION_LAYER_ASSIGNMENT (  '', '', ( #554 ) ) ;
#138 = CARTESIAN_POINT ( 'NONE',  ( 0.0000000000000000000, 0.0000000000000000000, 0.0000000000000000000 ) ) ;
#139 = ORIENTED_EDGE ( 'NONE', *, *, #529, .F. ) ;
#140 = CARTESIAN_POINT ( 'NONE',  ( 0.0000000000000000000, 0.0000000000000000000, 0.0000000000000000000 ) ) ;
#141 = CARTESIAN_POINT ( 'NONE',  ( 16.39999999999999858, 0.0000000000000000000, 30.00000000000000000 ) ) ;
#142 = VERTEX_POINT ( 'NONE', #390 ) ;
#143 = CARTESIAN_POINT ( 'NONE',  ( 0.0000000000000000000, 0.0000000000000000000, 0.0000000000000000000 ) ) ;
#144 = CARTESIAN_POINT ( 'NONE',  ( -1.599999999999998535, 11.00000000000000000, 30.00000000000000000 ) ) ;
#145 = ORIENTED_EDGE ( 'NONE', *, *, #271, .F. ) ;
#146 = LINE ( 'NONE', #318, #284 ) ;
#147 = DIRECTION ( 'NONE',  ( 0.0000000000000000000, 0.0000000000000000000, 1.000000000000000000 ) ) ;
#148 = EDGE_CURVE ( 'NONE', #157, #630, #135, .T. ) ;
#149 = DIRECTION ( 'NONE',  ( 0.0000000000000000000, 1.000000000000000000, -0.0000000000000000000 ) ) ;
#150 = ORIENTED_EDGE ( 'NONE', *, *, #125, .F. ) ;
#151 = LINE ( 'NONE', #239, #248 ) ;
#152 = ORIENTED_EDGE ( 'NONE', *, *, #86, .T. ) ;
#153 = VECTOR ( 'NONE', #666, 1000.000000000000000 ) ;
#154 = ORIENTED_EDGE ( 'NONE', *, *, #640, .T. ) ;
#155 = PRODUCT_RELATED_PRODUCT_CATEGORY ( 'part', '', ( #432 ) ) ;
#156 = STYLED_ITEM ( 'NONE', ( #336 ), #430 ) ;
#157 = VERTEX_POINT ( 'NONE', #517 ) ;
#158 = CARTESIAN_POINT ( 'NONE',  ( 1.190983005625052105, 2.500000000000000000, 0.0000000000000000000 ) ) ;
#159 = EDGE_CURVE ( 'NONE', #70, #157, #176, .T. ) ;
#160 = VECTOR ( 'NONE', #537, 1000.000000000000000 ) ;
#161 = ORIENTED_EDGE ( 'NONE', *, *, #356, .F. ) ;
#162 = VECTOR ( 'NONE', #207, 1000.000000000000000 ) ;
#163 = CARTESIAN_POINT ( 'NONE',  ( 0.6909830056250522157, 2.500000000000000000, 30.00000000000000000 ) ) ;
#164 = DIRECTION ( 'NONE',  ( -0.0000000000000000000, 0.0000000000000000000, 1.000000000000000000 ) ) ;
#165 = CARTESIAN_POINT ( 'NONE',  ( 16.39999999999999858, 11.00000000000000000, 8.000000000000000000 ) ) ;
#166 = FACE_OUTER_BOUND ( 'NONE', #133, .T. ) ;
#167 = CARTESIAN_POINT ( 'NONE',  ( 0.8090169943749472292, 0.0000000000000000000, 0.0000000000000000000 ) ) ;
#168 = LINE ( 'NONE', #716, #18 ) ;
#169 = CARTESIAN_POINT ( 'NONE',  ( 16.39999999999999858, 11.00000000000000000, 0.0000000000000000000 ) ) ;
#170 = ORIENTED_EDGE ( 'NONE', *, *, #715, .F. ) ;
#171 = AXIS2_PLACEMENT_3D ( 'NONE', #264, #668, #371 ) ;
#172 = DIRECTION ( 'NONE',  ( 1.000000000000000000, 0.0000000000000000000, 0.0000000000000000000 ) ) ;
#173 = EDGE_CURVE ( 'NONE', #413, #310, #281, .T. ) ;
#174 = CARTESIAN_POINT ( 'NONE',  ( -1.599999999999998535, 3.000000000000000000, 0.0000000000000000000 ) ) ;
#175 = DIRECTION ( 'NONE',  ( -0.0000000000000000000, -0.0000000000000000000, -1.000000000000000000 ) ) ;
#176 = CIRCLE ( 'NONE', #342, 0.5000000000000004441 ) ;
#177 = ORIENTED_EDGE ( 'NONE', *, *, #273, .T. ) ;
#178 = CARTESIAN_POINT ( 'NONE',  ( 0.0000000000000000000, 0.0000000000000000000, 30.00000000000000000 ) ) ;
#179 = VECTOR ( 'NONE', #111, 1000.000000000000000 ) ;
#180 = VERTEX_POINT ( 'NONE', #228 ) ;
#181 = UNCERTAINTY_MEASURE_WITH_UNIT (LENGTH_MEASURE( 1.000000000000000082E-05 ), #201, 'distance_accuracy_value', 'NONE');
#182 = CARTESIAN_POINT ( 'NONE',  ( 16.39999999999999858, 3.000000000000000000, 30.00000000000000000 ) ) ;
#183 = VERTEX_POINT ( 'NONE', #335 ) ;
#184 = ORIENTED_EDGE ( 'NONE', *, *, #219, .T. ) ;
#185 = EDGE_CURVE ( 'NONE', #669, #136, #151, .T. ) ;
#186 = VECTOR ( 'NONE', #268, 1000.000000000000000 ) ;
#187 = PLANE ( 'NONE',  #567 ) ;
#188 = CARTESIAN_POINT ( 'NONE',  ( -1.599999999999998535, 0.0000000000000000000, 0.0000000000000000000 ) ) ;
#189 = LINE ( 'NONE', #23, #727 ) ;
#190 = DIRECTION ( 'NONE',  ( -1.000000000000000000, 0.0000000000000000000, 0.0000000000000000000 ) ) ;
#191 = AXIS2_PLACEMENT_3D ( 'NONE', #141, #97, #197 ) ;
#192 = ORIENTED_EDGE ( 'NONE', *, *, #86, .F. ) ;
#193 = FACE_OUTER_BOUND ( 'NONE', #316, .T. ) ;
#194 = VERTEX_POINT ( 'NONE', #63 ) ;
#195 = SURFACE_SIDE_STYLE ('',( #398 ) ) ;
#196 = ORIENTED_EDGE ( 'NONE', *, *, #238, .F. ) ;
#197 = DIRECTION ( 'NONE',  ( -0.0000000000000000000, 0.0000000000000000000, -1.000000000000000000 ) ) ;
#198 = EDGE_CURVE ( 'NONE', #482, #465, #374, .T. ) ;
#199 = ADVANCED_FACE ( 'NONE', ( #317 ), #693, .T. ) ;
#200 = AXIS2_PLACEMENT_3D ( 'NONE', #556, #749, #62 ) ;
#201 =( LENGTH_UNIT ( ) NAMED_UNIT ( * ) SI_UNIT ( .MILLI., .METRE. ) );
#202 = DIRECTION ( 'NONE',  ( 0.0000000000000000000, 0.0000000000000000000, 1.000000000000000000 ) ) ;
#203 = ADVANCED_FACE ( 'NONE', ( #218 ), #670, .F. ) ;
#204 = ORIENTED_EDGE ( 'NONE', *, *, #527, .T. ) ;
#205 = ORIENTED_EDGE ( 'NONE', *, *, #496, .T. ) ;
#206 = ORIENTED_EDGE ( 'NONE', *, *, #112, .T. ) ;
#207 = DIRECTION ( 'NONE',  ( -1.000000000000000000, 0.0000000000000000000, 0.0000000000000000000 ) ) ;
#208 = LINE ( 'NONE', #304, #99 ) ;
#209 = VECTOR ( 'NONE', #425, 1000.000000000000000 ) ;
#210 = ORIENTED_EDGE ( 'NONE', *, *, #113, .T. ) ;
#211 = LINE ( 'NONE', #634, #441 ) ;
#212 = CARTESIAN_POINT ( 'NONE',  ( -1.599999999999998535, 11.00000000000000000, 8.000000000000000000 ) ) ;
#213 = ORIENTED_EDGE ( 'NONE', *, *, #624, .T. ) ;
#214 = LINE ( 'NONE', #539, #186 ) ;
#215 = ORIENTED_EDGE ( 'NONE', *, *, #307, .T. ) ;
#216 = DIRECTION ( 'NONE',  ( 0.0000000000000000000, -0.0000000000000000000, -1.000000000000000000 ) ) ;
#217 = DIRECTION ( 'NONE',  ( 1.000000000000000000, 0.0000000000000000000, 0.0000000000000000000 ) ) ;
#218 = FACE_OUTER_BOUND ( 'NONE', #742, .T. ) ;
#219 = EDGE_CURVE ( 'NONE', #555, #699, #242, .T. ) ;
#220 = EDGE_LOOP ( 'NONE', ( #397, #117, #36, #645 ) ) ;
#221 = ORIENTED_EDGE ( 'NONE', *, *, #715, .T. ) ;
#222 = ORIENTED_EDGE ( 'NONE', *, *, #690, .F. ) ;
#223 = CARTESIAN_POINT ( 'NONE',  ( 13.99098300562505415, 0.0000000000000000000, 30.00000000000000000 ) ) ;
#224 = AXIS2_PLACEMENT_3D ( 'NONE', #65, #68, #615 ) ;
#225 = LINE ( 'NONE', #597, #275 ) ;
#226 = CARTESIAN_POINT ( 'NONE',  ( -1.599999999999998535, 11.00000000000000000, 27.99999999999999645 ) ) ;
#227 = CIRCLE ( 'NONE', #293, 0.5000000000000004441 ) ;
#228 = CARTESIAN_POINT ( 'NONE',  ( -1.599999999999998535, 11.00000000000000000, 0.0000000000000000000 ) ) ;
#229 = ORIENTED_EDGE ( 'NONE', *, *, #415, .T. ) ;
#230 = LINE ( 'NONE', #680, #685 ) ;
#231 = CARTESIAN_POINT ( 'NONE',  ( 0.0000000000000000000, 3.000000000000000000, 30.00000000000000000 ) ) ;
#232 = EDGE_LOOP ( 'NONE', ( #103, #689, #120, #427 ) ) ;
#233 = PRESENTATION_LAYER_ASSIGNMENT (  '', '', ( #156 ) ) ;
#234 = CARTESIAN_POINT ( 'NONE',  ( 0.0000000000000000000, 11.00000000000000000, 27.99999999999999645 ) ) ;
#235 = PLANE ( 'NONE',  #654 ) ;
#236 = CYLINDRICAL_SURFACE ( 'NONE', #417, 0.5000000000000004441 ) ;
#237 = CARTESIAN_POINT ( 'NONE',  ( 14.43819660112501246, 0.7236067977499779369, 30.00000000000000000 ) ) ;
#238 = EDGE_CURVE ( 'NONE', #482, #628, #386, .T. ) ;
#239 = CARTESIAN_POINT ( 'NONE',  ( 0.0000000000000000000, 3.000000000000000000, 0.0000000000000000000 ) ) ;
#240 = DIRECTION ( 'NONE',  ( 0.8944271909999159664, 0.4472135954999578167, -0.0000000000000000000 ) ) ;
#241 = VERTEX_POINT ( 'NONE', #174 ) ;
#242 = CIRCLE ( 'NONE', #376, 1.400000000000000133 ) ;
#243 = FACE_OUTER_BOUND ( 'NONE', #643, .T. ) ;
#244 = CARTESIAN_POINT ( 'NONE',  ( 16.39999999999999858, 11.00000000000000000, 8.000000000000000000 ) ) ;
#245 = LINE ( 'NONE', #637, #507 ) ;
#246 = CARTESIAN_POINT ( 'NONE',  ( 13.99098300562505415, 0.4999999999999995559, 30.00000000000000000 ) ) ;
#247 = ORIENTED_EDGE ( 'NONE', *, *, #419, .T. ) ;
#248 = VECTOR ( 'NONE', #116, 1000.000000000000000 ) ;
#249 = ORIENTED_EDGE ( 'NONE', *, *, #300, .F. ) ;
#250 = SURFACE_STYLE_FILL_AREA ( #320 ) ;
#251 = CARTESIAN_POINT ( 'NONE',  ( 13.66180339887499251, 2.276393202250020398, 30.00000000000000000 ) ) ;
#252 = ORIENTED_EDGE ( 'NONE', *, *, #735, .F. ) ;
#253 = VECTOR ( 'NONE', #81, 1000.000000000000000 ) ;
#254 =( LENGTH_UNIT ( ) NAMED_UNIT ( * ) SI_UNIT ( .MILLI., .METRE. ) );
#255 = VECTOR ( 'NONE', #440, 1000.000000000000000 ) ;
#256 = DIRECTION ( 'NONE',  ( 1.000000000000000000, 0.0000000000000000000, 0.0000000000000000000 ) ) ;
#257 = ADVANCED_FACE ( 'NONE', ( #296 ), #106, .T. ) ;
#258 = PRODUCT_CONTEXT ( 'NONE', #665, 'mechanical' ) ;
#259 = ORIENTED_EDGE ( 'NONE', *, *, #148, .F. ) ;
#260 = DIRECTION ( 'NONE',  ( 1.000000000000000000, 0.0000000000000000000, 0.0000000000000000000 ) ) ;
#261 = AXIS2_PLACEMENT_3D ( 'NONE', #130, #694, #569 ) ;
#262 = SURFACE_SIDE_STYLE ('',( #250 ) ) ;
#263 = DIRECTION ( 'NONE',  ( 0.0000000000000000000, -0.0000000000000000000, -1.000000000000000000 ) ) ;
#264 = CARTESIAN_POINT ( 'NONE',  ( 14.10901699437495083, 2.500000000000000000, 30.00000000000000000 ) ) ;
#265 = ORIENTED_EDGE ( 'NONE', *, *, #380, .T. ) ;
#266 = ADVANCED_FACE ( 'NONE', ( #418, #389 ), #187, .T. ) ;
#267 = ORIENTED_EDGE ( 'NONE', *, *, #735, .T. ) ;
#268 = DIRECTION ( 'NONE',  ( -0.0000000000000000000, -0.0000000000000000000, 1.000000000000000000 ) ) ;
#269 = ORIENTED_EDGE ( 'NONE', *, *, #198, .F. ) ;
#270 = ADVANCED_FACE ( 'NONE', ( #324 ), #521, .F. ) ;
#271 = EDGE_CURVE ( 'NONE', #699, #555, #469, .T. ) ;
#272 = AXIS2_PLACEMENT_3D ( 'NONE', #453, #633, #687 ) ;
#273 = EDGE_CURVE ( 'NONE', #329, #669, #132, .T. ) ;
#274 = EDGE_LOOP ( 'NONE', ( #206, #575, #395, #396 ) ) ;
#275 = VECTOR ( 'NONE', #674, 1000.000000000000000 ) ;
#276 = DIRECTION ( 'NONE',  ( 0.0000000000000000000, -1.000000000000000000, 0.0000000000000000000 ) ) ;
#277 = DIRECTION ( 'NONE',  ( -0.0000000000000000000, -0.0000000000000000000, 1.000000000000000000 ) ) ;
#278 = DIRECTION ( 'NONE',  ( 1.000000000000000000, 0.0000000000000000000, 0.0000000000000000000 ) ) ;
#279 = CARTESIAN_POINT ( 'NONE',  ( 7.399999999999999467, 11.00000000000000000, 2.600000000000000089 ) ) ;
#280 = EDGE_LOOP ( 'NONE', ( #265, #439, #319, #648 ) ) ;
#281 = LINE ( 'NONE', #121, #732 ) ;
#282 = ORIENTED_EDGE ( 'NONE', *, *, #219, .F. ) ;
#283 = PLANE ( 'NONE',  #656 ) ;
#284 = VECTOR ( 'NONE', #379, 1000.000000000000000 ) ;
#285 = ORIENTED_EDGE ( 'NONE', *, *, #53, .F. ) ;
#286 = EDGE_CURVE ( 'NONE', #241, #180, #676, .T. ) ;
#287 = VECTOR ( 'NONE', #515, 1000.000000000000114 ) ;
#288 = ORIENTED_EDGE ( 'NONE', *, *, #88, .F. ) ;
#289 = CARTESIAN_POINT ( 'NONE',  ( 0.0000000000000000000, 0.0000000000000000000, 30.00000000000000000 ) ) ;
#290 = LINE ( 'NONE', #737, #547 ) ;
#291 = ORIENTED_EDGE ( 'NONE', *, *, #449, .F. ) ;
#292 = CYLINDRICAL_SURFACE ( 'NONE', #31, 0.4999999999999998890 ) ;
#293 = AXIS2_PLACEMENT_3D ( 'NONE', #653, #361, #481 ) ;
#294 = DIRECTION ( 'NONE',  ( 1.000000000000000000, 0.0000000000000000000, 0.0000000000000000000 ) ) ;
#295 = DIRECTION ( 'NONE',  ( 1.000000000000000000, 0.0000000000000000000, 0.0000000000000000000 ) ) ;
#296 = FACE_OUTER_BOUND ( 'NONE', #455, .T. ) ;
#297 = VECTOR ( 'NONE', #175, 1000.000000000000000 ) ;
#298 = ORIENTED_EDGE ( 'NONE', *, *, #712, .T. ) ;
#299 = ORIENTED_EDGE ( 'NONE', *, *, #370, .T. ) ;
#300 = EDGE_CURVE ( 'NONE', #142, #532, #713, .T. ) ;
#301 = CARTESIAN_POINT ( 'NONE',  ( -1.599999999999998535, 3.000000000000000000, 30.00000000000000000 ) ) ;
#302 = EDGE_CURVE ( 'NONE', #180, #710, #692, .T. ) ;
#303 = AXIS2_PLACEMENT_3D ( 'NONE', #646, #587, #424 ) ;
#304 = CARTESIAN_POINT ( 'NONE',  ( 16.39999999999999858, 11.00000000000000000, 27.99999999999999645 ) ) ;
#305 = VECTOR ( 'NONE', #513, 1000.000000000000000 ) ;
#306 = ORIENTED_EDGE ( 'NONE', *, *, #198, .T. ) ;
#307 = EDGE_CURVE ( 'NONE', #695, #108, #728, .T. ) ;
#308 = AXIS2_PLACEMENT_3D ( 'NONE', #119, #702, #190 ) ;
#309 =( NAMED_UNIT ( * ) PLANE_ANGLE_UNIT ( ) SI_UNIT ( $, .RADIAN. ) );
#310 = VERTEX_POINT ( 'NONE', #251 ) ;
#311 =( NAMED_UNIT ( * ) SI_UNIT ( $, .STERADIAN. ) SOLID_ANGLE_UNIT ( ) );
#312 = AXIS2_PLACEMENT_3D ( 'NONE', #677, #546, #384 ) ;
#313 = SURFACE_STYLE_USAGE ( .BOTH. , #195 ) ;
#314 =( NAMED_UNIT ( * ) PLANE_ANGLE_UNIT ( ) SI_UNIT ( $, .RADIAN. ) );
#315 = CARTESIAN_POINT ( 'NONE',  ( -1.599999999999998535, 0.0000000000000000000, 8.000000000000000000 ) ) ;
#316 = EDGE_LOOP ( 'NONE', ( #655, #152, #341, #519, #560, #577, #67, #421, #139, #30, #127, #269, #684, #221 ) ) ;
#317 = FACE_OUTER_BOUND ( 'NONE', #420, .T. ) ;
#318 = CARTESIAN_POINT ( 'NONE',  ( 0.0000000000000000000, 11.00000000000000000, 30.00000000000000000 ) ) ;
#319 = ORIENTED_EDGE ( 'NONE', *, *, #185, .F. ) ;
#320 = FILL_AREA_STYLE ('',( #595 ) ) ;
#321 = ADVANCED_FACE ( 'NONE', ( #22 ), #236, .T. ) ;
#322 = COLOUR_RGB ( '',0.7921568627450980005, 0.8196078431372548767, 0.9333333333333333481 ) ;
#323 = CARTESIAN_POINT ( 'NONE',  ( 14.10901699437495083, 3.000000000000000000, 30.00000000000000000 ) ) ;
#324 = FACE_OUTER_BOUND ( 'NONE', #504, .T. ) ;
#325 = UNCERTAINTY_MEASURE_WITH_UNIT (LENGTH_MEASURE( 1.000000000000000082E-05 ), #484, 'distance_accuracy_value', 'NONE');
#326 = CARTESIAN_POINT ( 'NONE',  ( 0.3090169943749472292, 0.5000000000000000000, 0.0000000000000000000 ) ) ;
#327 = CIRCLE ( 'NONE', #562, 1.400000000000000133 ) ;
#328 = EDGE_LOOP ( 'NONE', ( #686, #605, #488, #433 ) ) ;
#329 = VERTEX_POINT ( 'NONE', #404 ) ;
#330 = CARTESIAN_POINT ( 'NONE',  ( 0.8090169943749472292, 0.5000000000000000000, 30.00000000000000000 ) ) ;
#331 = ORIENTED_EDGE ( 'NONE', *, *, #9, .T. ) ;
#332 = VECTOR ( 'NONE', #7, 1000.000000000000000 ) ;
#333 = ORIENTED_EDGE ( 'NONE', *, *, #113, .F. ) ;
#334 = LINE ( 'NONE', #659, #467 ) ;
#335 = CARTESIAN_POINT ( 'NONE',  ( 16.39999999999999858, 5.000000000000000000, 8.000000000000000000 ) ) ;
#336 = PRESENTATION_STYLE_ASSIGNMENT (( #313 ) ) ;
#337 = CARTESIAN_POINT ( 'NONE',  ( 7.399999999999999467, -1.000000000000004441, 4.000000000000000000 ) ) ;
#338 = PLANE ( 'NONE',  #200 ) ;
#339 = FACE_OUTER_BOUND ( 'NONE', #373, .T. ) ;
#340 = PLANE ( 'NONE',  #224 ) ;
#341 = ORIENTED_EDGE ( 'NONE', *, *, #300, .T. ) ;
#342 = AXIS2_PLACEMENT_3D ( 'NONE', #394, #444, #456 ) ;
#343 = VECTOR ( 'NONE', #506, 1000.000000000000000 ) ;
#344 = AXIS2_PLACEMENT_3D ( 'NONE', #138, #349, #21 ) ;
#345 = CARTESIAN_POINT ( 'NONE',  ( 1.138196601125010421, 2.276393202250021730, 0.0000000000000000000 ) ) ;
#346 = AXIS2_PLACEMENT_3D ( 'NONE', #337, #510, #747 ) ;
#347 = AXIS2_PLACEMENT_3D ( 'NONE', #163, #621, #217 ) ;
#348 = DIRECTION ( 'NONE',  ( -0.4472135954999578167, 0.8944271909999159664, 0.0000000000000000000 ) ) ;
#349 = DIRECTION ( 'NONE',  ( -0.0000000000000000000, 0.0000000000000000000, 1.000000000000000000 ) ) ;
#350 = ORIENTED_EDGE ( 'NONE', *, *, #675, .F. ) ;
#351 = VECTOR ( 'NONE', #277, 1000.000000000000000 ) ;
#352 = DIRECTION ( 'NONE',  ( -0.0000000000000000000, 1.000000000000000000, -0.0000000000000000000 ) ) ;
#353 = DIRECTION ( 'NONE',  ( 1.000000000000000000, 0.0000000000000000000, 0.0000000000000000000 ) ) ;
#354 = VERTEX_POINT ( 'NONE', #244 ) ;
#355 = VERTEX_POINT ( 'NONE', #11 ) ;
#356 = EDGE_CURVE ( 'NONE', #540, #354, #381, .T. ) ;
#357 = ORIENTED_EDGE ( 'NONE', *, *, #104, .T. ) ;
#358 = DIRECTION ( 'NONE',  ( 0.0000000000000000000, 0.0000000000000000000, 1.000000000000000000 ) ) ;
#359 = EDGE_LOOP ( 'NONE', ( #730, #252, #545, #259 ) ) ;
#360 = FACE_OUTER_BOUND ( 'NONE', #220, .T. ) ;
#361 = DIRECTION ( 'NONE',  ( 0.0000000000000000000, -0.0000000000000000000, -1.000000000000000000 ) ) ;
#362 = APPLICATION_PROTOCOL_DEFINITION ( 'draft international standard', 'automotive_design', 1998, #665 ) ;
#363 = PLANE ( 'NONE',  #191 ) ;
#364 = ORIENTED_EDGE ( 'NONE', *, *, #746, .F. ) ;
#365 = DIRECTION ( 'NONE',  ( 1.000000000000000000, 0.0000000000000000000, 0.0000000000000000000 ) ) ;
#366 = CARTESIAN_POINT ( 'NONE',  ( 13.66180339887499251, 2.276393202250020398, 0.0000000000000000000 ) ) ;
#367 = FACE_OUTER_BOUND ( 'NONE', #391, .T. ) ;
#368 =( GEOMETRIC_REPRESENTATION_CONTEXT ( 3 ) GLOBAL_UNCERTAINTY_ASSIGNED_CONTEXT ( ( #27 ) ) GLOBAL_UNIT_ASSIGNED_CONTEXT ( ( #254, #592, #311 ) ) REPRESENTATION_CONTEXT ( 'NONE', 'WORKASPACE' ) );
#369 = DIRECTION ( 'NONE',  ( -0.8944271909999159664, 0.4472135954999578167, 0.0000000000000000000 ) ) ;
#370 = EDGE_CURVE ( 'NONE', #736, #555, #245, .T. ) ;
#371 = DIRECTION ( 'NONE',  ( 1.000000000000000000, 0.0000000000000000000, 0.0000000000000000000 ) ) ;
#372 = ORIENTED_EDGE ( 'NONE', *, *, #543, .F. ) ;
#373 = EDGE_LOOP ( 'NONE', ( #723, #285, #593, #222, #364, #6, #15, #177 ) ) ;
#374 = LINE ( 'NONE', #231, #84 ) ;
#375 = EDGE_LOOP ( 'NONE', ( #509, #85, #372, #405 ) ) ;
#376 = AXIS2_PLACEMENT_3D ( 'NONE', #78, #128, #708 ) ;
#377 = VECTOR ( 'NONE', #107, 1000.000000000000000 ) ;
#378 = ORIENTED_EDGE ( 'NONE', *, *, #148, .T. ) ;
#379 = DIRECTION ( 'NONE',  ( 1.000000000000000000, 0.0000000000000000000, 0.0000000000000000000 ) ) ;
#380 = EDGE_CURVE ( 'NONE', #329, #557, #487, .T. ) ;
#381 = LINE ( 'NONE', #409, #90 ) ;
#382 = EDGE_CURVE ( 'NONE', #710, #669, #748, .T. ) ;
#383 = AXIS2_PLACEMENT_3D ( 'NONE', #644, #459, #353 ) ;
#384 = DIRECTION ( 'NONE',  ( 1.000000000000000000, 0.0000000000000000000, 0.0000000000000000000 ) ) ;
#385 = AXIS2_PLACEMENT_3D ( 'NONE', #678, #553, #172 ) ;
#386 = CIRCLE ( 'NONE', #500, 0.4999999999999998890 ) ;
#387 = CARTESIAN_POINT ( 'NONE',  ( 7.399999999999999467, 0.0000000000000000000, 5.400000000000000355 ) ) ;
#388 = LINE ( 'NONE', #28, #598 ) ;
#389 = FACE_OUTER_BOUND ( 'NONE', #232, .T. ) ;
#390 = CARTESIAN_POINT ( 'NONE',  ( 0.3090169943749472292, 0.5000000000000000000, 30.00000000000000000 ) ) ;
#391 = EDGE_LOOP ( 'NONE', ( #288, #161, #617, #204 ) ) ;
#392 = DIRECTION ( 'NONE',  ( 0.0000000000000000000, 0.0000000000000000000, 1.000000000000000000 ) ) ;
#393 = FACE_OUTER_BOUND ( 'NONE', #468, .T. ) ;
#394 = CARTESIAN_POINT ( 'NONE',  ( 13.99098300562505415, 0.4999999999999995559, 30.00000000000000000 ) ) ;
#395 = ORIENTED_EDGE ( 'NONE', *, *, #307, .F. ) ;
#396 = ORIENTED_EDGE ( 'NONE', *, *, #608, .T. ) ;
#397 = ORIENTED_EDGE ( 'NONE', *, *, #746, .T. ) ;
#398 = SURFACE_STYLE_FILL_AREA ( #584 ) ;
#399 = CARTESIAN_POINT ( 'NONE',  ( 0.0000000000000000000, 11.00000000000000000, 27.99999999999999645 ) ) ;
#400 = VECTOR ( 'NONE', #358, 1000.000000000000000 ) ;
#401 = PLANE ( 'NONE',  #502 ) ;
#402 = ORIENTED_EDGE ( 'NONE', *, *, #652, .T. ) ;
#403 = ORIENTED_EDGE ( 'NONE', *, *, #740, .F. ) ;
#404 = CARTESIAN_POINT ( 'NONE',  ( 16.39999999999999858, 3.000000000000000000, 30.00000000000000000 ) ) ;
#405 = ORIENTED_EDGE ( 'NONE', *, *, #91, .F. ) ;
#406 = FACE_OUTER_BOUND ( 'NONE', #274, .T. ) ;
#407 = EDGE_CURVE ( 'NONE', #1, #436, #603, .T. ) ;
#408 = DIRECTION ( 'NONE',  ( -0.0000000000000000000, -0.0000000000000000000, -1.000000000000000000 ) ) ;
#409 = CARTESIAN_POINT ( 'NONE',  ( 0.0000000000000000000, 11.00000000000000000, 8.000000000000000000 ) ) ;
#410 = CLOSED_SHELL ( 'NONE', ( #203, #257, #479, #34, #101, #93, #660, #423, #581, #199, #591, #98, #270, #650, #719, #739, #321, #266, #725, #46, #476, #43 ) ) ;
#411 = DIRECTION ( 'NONE',  ( -1.000000000000000000, 0.0000000000000000000, 0.0000000000000000000 ) ) ;
#412 = VERTEX_POINT ( 'NONE', #711 ) ;
#413 = VERTEX_POINT ( 'NONE', #366 ) ;
#414 = CARTESIAN_POINT ( 'NONE',  ( 0.0000000000000000000, 11.00000000000000000, 8.000000000000000000 ) ) ;
#415 = EDGE_CURVE ( 'NONE', #47, #583, #448, .T. ) ;
#416 = DIRECTION ( 'NONE',  ( -0.0000000000000000000, -0.0000000000000000000, 1.000000000000000000 ) ) ;
#417 = AXIS2_PLACEMENT_3D ( 'NONE', #246, #703, #131 ) ;
#418 = FACE_BOUND ( 'NONE', #534, .T. ) ;
#419 = EDGE_CURVE ( 'NONE', #194, #482, #189, .T. ) ;
#420 = EDGE_LOOP ( 'NONE', ( #429, #247, #306, #483 ) ) ;
#421 = ORIENTED_EDGE ( 'NONE', *, *, #380, .F. ) ;
#422 = CARTESIAN_POINT ( 'NONE',  ( 0.6909830056250522157, 2.500000000000000000, 30.00000000000000000 ) ) ;
#423 = ADVANCED_FACE ( 'NONE', ( #339 ), #363, .T. ) ;
#424 = DIRECTION ( 'NONE',  ( 1.000000000000000000, 0.0000000000000000000, 0.0000000000000000000 ) ) ;
#425 = DIRECTION ( 'NONE',  ( 0.0000000000000000000, -1.000000000000000000, 0.0000000000000000000 ) ) ;
#426 = DIRECTION ( 'NONE',  ( -0.0000000000000000000, 1.000000000000000000, -0.0000000000000000000 ) ) ;
#427 = ORIENTED_EDGE ( 'NONE', *, *, #53, .T. ) ;
#428 = LINE ( 'NONE', #399, #626 ) ;
#429 = ORIENTED_EDGE ( 'NONE', *, *, #20, .F. ) ;
#430 = MANIFOLD_SOLID_BREP ( 'Wytnij-wyciągnięcie1', #410 ) ;
#431 = CARTESIAN_POINT ( 'NONE',  ( 1.138196601125010421, 2.276393202250021730, 30.00000000000000000 ) ) ;
#432 = PRODUCT ( 'endstop mounting', 'endstop mounting', '', ( #258 ) ) ;
#433 = ORIENTED_EDGE ( 'NONE', *, *, #527, .F. ) ;
#434 = CARTESIAN_POINT ( 'NONE',  ( 7.399999999999999467, 11.00000000000000000, 5.400000000000000355 ) ) ;
#435 = LINE ( 'NONE', #8, #255 ) ;
#436 = VERTEX_POINT ( 'NONE', #144 ) ;
#437 = AXIS2_PLACEMENT_3D ( 'NONE', #733, #216, #39 ) ;
#438 = CARTESIAN_POINT ( 'NONE',  ( 0.0000000000000000000, 0.0000000000000000000, 8.000000000000000000 ) ) ;
#439 = ORIENTED_EDGE ( 'NONE', *, *, #91, .T. ) ;
#440 = DIRECTION ( 'NONE',  ( -1.000000000000000000, 0.0000000000000000000, 0.0000000000000000000 ) ) ;
#441 = VECTOR ( 'NONE', #12, 1000.000000000000000 ) ;
#442 = ORIENTED_EDGE ( 'NONE', *, *, #122, .F. ) ;
#443 = CARTESIAN_POINT ( 'NONE',  ( 16.39999999999999858, 0.0000000000000000000, 27.99999999999999645 ) ) ;
#444 = DIRECTION ( 'NONE',  ( -0.0000000000000000000, 0.0000000000000000000, 1.000000000000000000 ) ) ;
#445 = ORIENTED_EDGE ( 'NONE', *, *, #624, .F. ) ;
#446 = DIRECTION ( 'NONE',  ( 0.0000000000000000000, -1.000000000000000000, 0.0000000000000000000 ) ) ;
#447 = DIRECTION ( 'NONE',  ( 0.4472135954999577612, -0.8944271909999158554, 0.0000000000000000000 ) ) ;
#448 = CIRCLE ( 'NONE', #82, 0.5000000000000000000 ) ;
#449 = EDGE_CURVE ( 'NONE', #5, #512, #208, .T. ) ;
#450 = DIRECTION ( 'NONE',  ( 0.0000000000000000000, 0.0000000000000000000, -1.000000000000000000 ) ) ;
#451 = MECHANICAL_DESIGN_GEOMETRIC_PRESENTATION_REPRESENTATION (  '', ( #156 ), #492 ) ;
#452 = FACE_OUTER_BOUND ( 'NONE', #503, .T. ) ;
#453 = CARTESIAN_POINT ( 'NONE',  ( 7.399999999999999467, -1.000000000000004441, 4.000000000000000000 ) ) ;
#454 = CARTESIAN_POINT ( 'NONE',  ( 16.39999999999999858, 0.0000000000000000000, 8.000000000000000000 ) ) ;
#455 = EDGE_LOOP ( 'NONE', ( #249, #210, #586, #570 ) ) ;
#456 = DIRECTION ( 'NONE',  ( 1.000000000000000000, 0.0000000000000000000, 0.0000000000000000000 ) ) ;
#457 = PLANE ( 'NONE',  #612 ) ;
#458 = AXIS2_PLACEMENT_3D ( 'NONE', #330, #2, #118 ) ;
#459 = DIRECTION ( 'NONE',  ( -0.0000000000000000000, 0.0000000000000000000, 1.000000000000000000 ) ) ;
#460 = CARTESIAN_POINT ( 'NONE',  ( 11.84000000000000341, 5.919999999999999929, 30.00000000000000000 ) ) ;
#461 = CARTESIAN_POINT ( 'NONE',  ( -0.0000000000000000000, 11.00000000000000000, 0.0000000000000000000 ) ) ;
#462 = SHAPE_DEFINITION_REPRESENTATION ( #601, #717 ) ;
#463 = VERTEX_POINT ( 'NONE', #531 ) ;
#464 = LINE ( 'NONE', #454, #658 ) ;
#465 = VERTEX_POINT ( 'NONE', #301 ) ;
#466 = CARTESIAN_POINT ( 'NONE',  ( 16.39999999999999858, 0.0000000000000000000, 0.0000000000000000000 ) ) ;
#467 = VECTOR ( 'NONE', #542, 1000.000000000000000 ) ;
#468 = EDGE_LOOP ( 'NONE', ( #445, #402, #299, #184 ) ) ;
#469 = CIRCLE ( 'NONE', #697, 1.400000000000000133 ) ;
#470 = ORIENTED_EDGE ( 'NONE', *, *, #302, .T. ) ;
#471 = PLANE ( 'NONE',  #303 ) ;
#472 = LINE ( 'NONE', #627, #576 ) ;
#473 = ORIENTED_EDGE ( 'NONE', *, *, #675, .T. ) ;
#474 = CARTESIAN_POINT ( 'NONE',  ( 11.84000000000000341, 5.919999999999999929, 0.0000000000000000000 ) ) ;
#475 = ORIENTED_EDGE ( 'NONE', *, *, #370, .F. ) ;
#476 = ADVANCED_FACE ( 'NONE', ( #360 ), #471, .F. ) ;
#477 = CARTESIAN_POINT ( 'NONE',  ( 0.8090169943749472292, 0.5000000000000000000, 0.0000000000000000000 ) ) ;
#478 = CARTESIAN_POINT ( 'NONE',  ( 16.39999999999999858, 11.00000000000000000, 30.00000000000000000 ) ) ;
#479 = ADVANCED_FACE ( 'NONE', ( #497 ), #292, .F. ) ;
#480 = VECTOR ( 'NONE', #114, 1000.000000000000000 ) ;
#481 = DIRECTION ( 'NONE',  ( 1.000000000000000000, 3.469446951953611033E-15, 0.0000000000000000000 ) ) ;
#482 = VERTEX_POINT ( 'NONE', #89 ) ;
#483 = ORIENTED_EDGE ( 'NONE', *, *, #72, .T. ) ;
#484 =( LENGTH_UNIT ( ) NAMED_UNIT ( * ) SI_UNIT ( .MILLI., .METRE. ) );
#485 = LINE ( 'NONE', #33, #522 ) ;
#486 = CARTESIAN_POINT ( 'NONE',  ( -1.599999999999998535, 0.0000000000000000000, 30.00000000000000000 ) ) ;
#487 = LINE ( 'NONE', #14, #44 ) ;
#488 = ORIENTED_EDGE ( 'NONE', *, *, #690, .T. ) ;
#489 = EDGE_CURVE ( 'NONE', #310, #557, #227, .T. ) ;
#490 = VECTOR ( 'NONE', #688, 1000.000000000000000 ) ;
#491 = VERTEX_POINT ( 'NONE', #722 ) ;
#492 =( GEOMETRIC_REPRESENTATION_CONTEXT ( 3 ) GLOBAL_UNCERTAINTY_ASSIGNED_CONTEXT ( ( #181 ) ) GLOBAL_UNIT_ASSIGNED_CONTEXT ( ( #201, #309, #580 ) ) REPRESENTATION_CONTEXT ( 'NONE', 'WORKASPACE' ) );
#493 = CARTESIAN_POINT ( 'NONE',  ( 7.399999999999999467, -1.000000000000004441, 2.600000000000000089 ) ) ;
#494 = CYLINDRICAL_SURFACE ( 'NONE', #458, 0.5000000000000000000 ) ;
#495 = VERTEX_POINT ( 'NONE', #714 ) ;
#496 = EDGE_CURVE ( 'NONE', #465, #436, #388, .T. ) ;
#497 = FACE_OUTER_BOUND ( 'NONE', #54, .T. ) ;
#498 = DIRECTION ( 'NONE',  ( 0.0000000000000000000, 0.0000000000000000000, 1.000000000000000000 ) ) ;
#499 = EDGE_CURVE ( 'NONE', #70, #532, #61, .T. ) ;
#500 = AXIS2_PLACEMENT_3D ( 'NONE', #524, #698, #518 ) ;
#501 = CARTESIAN_POINT ( 'NONE',  ( 0.6909830056250522157, 2.500000000000000000, 30.00000000000000000 ) ) ;
#502 = AXIS2_PLACEMENT_3D ( 'NONE', #289, #71, #516 ) ;
#503 = EDGE_LOOP ( 'NONE', ( #657, #291, #720, #544 ) ) ;
#504 = EDGE_LOOP ( 'NONE', ( #154, #229, #298, #215, #357, #473, #548, #671, #470, #574, #721, #600, #3, #94 ) ) ;
#505 = LINE ( 'NONE', #223, #351 ) ;
#506 = DIRECTION ( 'NONE',  ( 0.0000000000000000000, 0.0000000000000000000, -1.000000000000000000 ) ) ;
#507 = VECTOR ( 'NONE', #352, 1000.000000000000000 ) ;
#508 = CARTESIAN_POINT ( 'NONE',  ( 7.399999999999999467, 0.0000000000000000000, 4.000000000000000000 ) ) ;
#509 = ORIENTED_EDGE ( 'NONE', *, *, #489, .F. ) ;
#510 = DIRECTION ( 'NONE',  ( -0.0000000000000000000, 1.000000000000000000, -0.0000000000000000000 ) ) ;
#511 = CIRCLE ( 'NONE', #533, 0.4999999999999998890 ) ;
#512 = VERTEX_POINT ( 'NONE', #478 ) ;
#513 = DIRECTION ( 'NONE',  ( 0.0000000000000000000, 0.0000000000000000000, -1.000000000000000000 ) ) ;
#514 = CARTESIAN_POINT ( 'NONE',  ( -1.599999999999998535, 5.000000000000000000, 30.00000000000000000 ) ) ;
#515 = DIRECTION ( 'NONE',  ( 0.4472135954999577612, 0.8944271909999158554, 0.0000000000000000000 ) ) ;
#516 = DIRECTION ( 'NONE',  ( 1.000000000000000000, 0.0000000000000000000, 0.0000000000000000000 ) ) ;
#517 = CARTESIAN_POINT ( 'NONE',  ( 14.43819660112501246, 0.7236067977499788251, 30.00000000000000000 ) ) ;
#518 = DIRECTION ( 'NONE',  ( 1.000000000000000000, 0.0000000000000000000, 0.0000000000000000000 ) ) ;
#519 = ORIENTED_EDGE ( 'NONE', *, *, #499, .F. ) ;
#520 = DIRECTION ( 'NONE',  ( 0.0000000000000000000, 0.0000000000000000000, -1.000000000000000000 ) ) ;
#521 = PLANE ( 'NONE',  #344 ) ;
#522 = VECTOR ( 'NONE', #260, 1000.000000000000000 ) ;
#523 = EDGE_CURVE ( 'NONE', #413, #630, #129, .T. ) ;
#524 = CARTESIAN_POINT ( 'NONE',  ( 0.6909830056250522157, 2.500000000000000000, 30.00000000000000000 ) ) ;
#525 = ORIENTED_EDGE ( 'NONE', *, *, #608, .F. ) ;
#526 = DIRECTION ( 'NONE',  ( 0.4472135954999577612, 0.8944271909999158554, 0.0000000000000000000 ) ) ;
#527 = EDGE_CURVE ( 'NONE', #463, #183, #485, .T. ) ;
#528 = VECTOR ( 'NONE', #295, 1000.000000000000000 ) ;
#529 = EDGE_CURVE ( 'NONE', #512, #329, #334, .T. ) ;
#530 = AXIS2_PLACEMENT_3D ( 'NONE', #610, #45, #664 ) ;
#531 = CARTESIAN_POINT ( 'NONE',  ( -1.599999999999998535, 5.000000000000000000, 8.000000000000000000 ) ) ;
#532 = VERTEX_POINT ( 'NONE', #718 ) ;
#533 = AXIS2_PLACEMENT_3D ( 'NONE', #632, #629, #294 ) ;
#534 = EDGE_LOOP ( 'NONE', ( #282, #145 ) ) ;
#535 = CARTESIAN_POINT ( 'NONE',  ( 0.0000000000000000000, 0.0000000000000000000, 30.00000000000000000 ) ) ;
#536 = CIRCLE ( 'NONE', #437, 0.5000000000000004441 ) ;
#537 = DIRECTION ( 'NONE',  ( 0.0000000000000000000, 1.000000000000000000, -0.0000000000000000000 ) ) ;
#538 = ORIENTED_EDGE ( 'NONE', *, *, #652, .F. ) ;
#539 = CARTESIAN_POINT ( 'NONE',  ( 0.3618033988749893015, 0.7236067977499789361, 30.00000000000000000 ) ) ;
#540 = VERTEX_POINT ( 'NONE', #212 ) ;
#541 = CIRCLE ( 'NONE', #385, 0.4999999999999998890 ) ;
#542 = DIRECTION ( 'NONE',  ( 0.0000000000000000000, -1.000000000000000000, 0.0000000000000000000 ) ) ;
#543 = EDGE_CURVE ( 'NONE', #136, #413, #639, .T. ) ;
#544 = ORIENTED_EDGE ( 'NONE', *, *, #407, .T. ) ;
#545 = ORIENTED_EDGE ( 'NONE', *, *, #599, .F. ) ;
#546 = DIRECTION ( 'NONE',  ( 0.0000000000000000000, -0.0000000000000000000, -1.000000000000000000 ) ) ;
#547 = VECTOR ( 'NONE', #618, 1000.000000000000000 ) ;
#548 = ORIENTED_EDGE ( 'NONE', *, *, #20, .T. ) ;
#549 = CARTESIAN_POINT ( 'NONE',  ( 13.99098300562505415, 0.0000000000000000000, 30.00000000000000000 ) ) ;
#550 = LINE ( 'NONE', #315, #153 ) ;
#551 = DIRECTION ( 'NONE',  ( 1.000000000000000000, 0.0000000000000000000, 0.0000000000000000000 ) ) ;
#552 = EDGE_CURVE ( 'NONE', #463, #540, #550, .T. ) ;
#553 = DIRECTION ( 'NONE',  ( -0.0000000000000000000, 0.0000000000000000000, 1.000000000000000000 ) ) ;
#554 = STYLED_ITEM ( 'NONE', ( #673 ), #717 ) ;
#555 = VERTEX_POINT ( 'NONE', #434 ) ;
#556 = CARTESIAN_POINT ( 'NONE',  ( 0.0000000000000000000, 3.000000000000000000, 30.00000000000000000 ) ) ;
#557 = VERTEX_POINT ( 'NONE', #323 ) ;
#558 = DIRECTION ( 'NONE',  ( 0.0000000000000000000, 0.0000000000000000000, -1.000000000000000000 ) ) ;
#559 = COLOUR_RGB ( '',0.7921568627450980005, 0.8196078431372548767, 0.9333333333333333481 ) ;
#560 = ORIENTED_EDGE ( 'NONE', *, *, #159, .T. ) ;
#561 = DIRECTION ( 'NONE',  ( -0.0000000000000000000, -0.0000000000000000000, 1.000000000000000000 ) ) ;
#562 = AXIS2_PLACEMENT_3D ( 'NONE', #66, #123, #563 ) ;
#563 = DIRECTION ( 'NONE',  ( 0.0000000000000000000, 0.0000000000000000000, -1.000000000000000000 ) ) ;
#564 = DIRECTION ( 'NONE',  ( 0.0000000000000000000, -0.0000000000000000000, -1.000000000000000000 ) ) ;
#565 = EDGE_LOOP ( 'NONE', ( #150, #538 ) ) ;
#566 = EDGE_CURVE ( 'NONE', #436, #512, #146, .T. ) ;
#567 = AXIS2_PLACEMENT_3D ( 'NONE', #414, #19, #578 ) ;
#568 = CARTESIAN_POINT ( 'NONE',  ( 0.3090169943749472292, 0.5000000000000000000, 30.00000000000000000 ) ) ;
#569 = DIRECTION ( 'NONE',  ( 1.000000000000000000, 0.0000000000000000000, 0.0000000000000000000 ) ) ;
#570 = ORIENTED_EDGE ( 'NONE', *, *, #9, .F. ) ;
#571 = AXIS2_PLACEMENT_3D ( 'NONE', #234, #276, #60 ) ;
#572 = DIRECTION ( 'NONE',  ( 1.000000000000000000, 0.0000000000000000000, 0.0000000000000000000 ) ) ;
#573 = DIRECTION ( 'NONE',  ( 0.0000000000000000000, -1.000000000000000000, 0.0000000000000000000 ) ) ;
#574 = ORIENTED_EDGE ( 'NONE', *, *, #382, .T. ) ;
#575 = ORIENTED_EDGE ( 'NONE', *, *, #122, .T. ) ;
#576 = VECTOR ( 'NONE', #450, 1000.000000000000000 ) ;
#577 = ORIENTED_EDGE ( 'NONE', *, *, #35, .F. ) ;
#578 = DIRECTION ( 'NONE',  ( 0.0000000000000000000, -0.0000000000000000000, 1.000000000000000000 ) ) ;
#579 = EDGE_LOOP ( 'NONE', ( #679, #55, #442, #170 ) ) ;
#580 =( NAMED_UNIT ( * ) SI_UNIT ( $, .STERADIAN. ) SOLID_ANGLE_UNIT ( ) );
#581 = ADVANCED_FACE ( 'NONE', ( #243 ), #672, .T. ) ;
#582 = LINE ( 'NONE', #165, #297 ) ;
#583 = VERTEX_POINT ( 'NONE', #326 ) ;
#584 = FILL_AREA_STYLE ('',( #32 ) ) ;
#585 = CIRCLE ( 'NONE', #96, 1.400000000000000133 ) ;
#586 = ORIENTED_EDGE ( 'NONE', *, *, #415, .F. ) ;
#587 = DIRECTION ( 'NONE',  ( -0.0000000000000000000, 0.0000000000000000000, 1.000000000000000000 ) ) ;
#588 = AXIS2_PLACEMENT_3D ( 'NONE', #729, #369, #738 ) ;
#589 = DIRECTION ( 'NONE',  ( 0.4472135954999577612, -0.8944271909999158554, 0.0000000000000000000 ) ) ;
#590 = VECTOR ( 'NONE', #526, 1000.000000000000114 ) ;
#591 = ADVANCED_FACE ( 'NONE', ( #406 ), #105, .T. ) ;
#592 =( NAMED_UNIT ( * ) PLANE_ANGLE_UNIT ( ) SI_UNIT ( $, .RADIAN. ) );
#593 = ORIENTED_EDGE ( 'NONE', *, *, #88, .T. ) ;
#594 = VECTOR ( 'NONE', #447, 1000.000000000000114 ) ;
#595 = FILL_AREA_STYLE_COLOUR ( '', #559 ) ;
#596 = ORIENTED_EDGE ( 'NONE', *, *, #419, .F. ) ;
#597 = CARTESIAN_POINT ( 'NONE',  ( 0.0000000000000000000, 0.0000000000000000000, 0.0000000000000000000 ) ) ;
#598 = VECTOR ( 'NONE', #149, 1000.000000000000000 ) ;
#599 = EDGE_CURVE ( 'NONE', #630, #491, #536, .T. ) ;
#600 = ORIENTED_EDGE ( 'NONE', *, *, #543, .T. ) ;
#601 = PRODUCT_DEFINITION_SHAPE ( 'NONE', 'NONE',  #667 ) ;
#602 = CARTESIAN_POINT ( 'NONE',  ( 1.190983005625052105, 2.500000000000000000, 30.00000000000000000 ) ) ;
#603 = LINE ( 'NONE', #73, #400 ) ;
#604 = FACE_OUTER_BOUND ( 'NONE', #625, .T. ) ;
#605 = ORIENTED_EDGE ( 'NONE', *, *, #696, .T. ) ;
#606 = ORIENTED_EDGE ( 'NONE', *, *, #712, .F. ) ;
#607 = CARTESIAN_POINT ( 'NONE',  ( 16.39999999999999858, 11.00000000000000000, 27.99999999999999645 ) ) ;
#608 = EDGE_CURVE ( 'NONE', #695, #495, #214, .T. ) ;
#609 = FACE_OUTER_BOUND ( 'NONE', #280, .T. ) ;
#610 = CARTESIAN_POINT ( 'NONE',  ( 14.10901699437495083, 2.500000000000000000, 0.0000000000000000000 ) ) ;
#611 = AXIS2_PLACEMENT_3D ( 'NONE', #691, #446, #623 ) ;
#612 = AXIS2_PLACEMENT_3D ( 'NONE', #460, #240, #348 ) ;
#613 = PLANE ( 'NONE',  #571 ) ;
#614 = ORIENTED_EDGE ( 'NONE', *, *, #552, .T. ) ;
#615 = DIRECTION ( 'NONE',  ( 0.0000000000000000000, -0.0000000000000000000, 1.000000000000000000 ) ) ;
#616 = CIRCLE ( 'NONE', #261, 0.5000000000000000000 ) ;
#617 = ORIENTED_EDGE ( 'NONE', *, *, #552, .F. ) ;
#618 = DIRECTION ( 'NONE',  ( -0.0000000000000000000, -0.0000000000000000000, -1.000000000000000000 ) ) ;
#619 = CARTESIAN_POINT ( 'NONE',  ( -1.599999999999998535, 3.000000000000000000, 30.00000000000000000 ) ) ;
#620 = ORIENTED_EDGE ( 'NONE', *, *, #173, .T. ) ;
#621 = DIRECTION ( 'NONE',  ( 0.0000000000000000000, -0.0000000000000000000, -1.000000000000000000 ) ) ;
#622 =( GEOMETRIC_REPRESENTATION_CONTEXT ( 3 ) GLOBAL_UNCERTAINTY_ASSIGNED_CONTEXT ( ( #325 ) ) GLOBAL_UNIT_ASSIGNED_CONTEXT ( ( #484, #314, #651 ) ) REPRESENTATION_CONTEXT ( 'NONE', 'WORKASPACE' ) );
#623 = DIRECTION ( 'NONE',  ( 0.0000000000000000000, -0.0000000000000000000, -1.000000000000000000 ) ) ;
#624 = EDGE_CURVE ( 'NONE', #412, #699, #40, .T. ) ;
#625 = EDGE_LOOP ( 'NONE', ( #126, #331, #38, #267 ) ) ;
#626 = VECTOR ( 'NONE', #278, 1000.000000000000000 ) ;
#627 = CARTESIAN_POINT ( 'NONE',  ( 1.138196601125010199, 2.276393202250021286, 0.0000000000000000000 ) ) ;
#628 = VERTEX_POINT ( 'NONE', #602 ) ;
#629 = DIRECTION ( 'NONE',  ( -0.0000000000000000000, 0.0000000000000000000, 1.000000000000000000 ) ) ;
#630 = VERTEX_POINT ( 'NONE', #42 ) ;
#631 = CARTESIAN_POINT ( 'NONE',  ( 14.10901699437495083, 3.000000000000000000, 0.0000000000000000000 ) ) ;
#632 = CARTESIAN_POINT ( 'NONE',  ( 0.6909830056250522157, 2.500000000000000000, 0.0000000000000000000 ) ) ;
#633 = DIRECTION ( 'NONE',  ( -0.0000000000000000000, 1.000000000000000000, -0.0000000000000000000 ) ) ;
#634 = CARTESIAN_POINT ( 'NONE',  ( -1.599999999999998535, 11.00000000000000000, 8.000000000000000000 ) ) ;
#635 = DIRECTION ( 'NONE',  ( 0.0000000000000000000, 1.000000000000000000, 0.0000000000000000000 ) ) ;
#636 = VERTEX_POINT ( 'NONE', #158 ) ;
#637 = CARTESIAN_POINT ( 'NONE',  ( 7.399999999999999467, -1.000000000000004441, 5.400000000000000355 ) ) ;
#638 = LINE ( 'NONE', #663, #160 ) ;
#639 = CIRCLE ( 'NONE', #530, 0.5000000000000004441 ) ;
#640 = EDGE_CURVE ( 'NONE', #491, #47, #225, .T. ) ;
#641 = VECTOR ( 'NONE', #408, 1000.000000000000000 ) ;
#642 = CARTESIAN_POINT ( 'NONE',  ( 7.399999999999999467, 11.00000000000000000, 4.000000000000000000 ) ) ;
#643 = EDGE_LOOP ( 'NONE', ( #734, #744, #205, #80, #403, #704, #614, #17 ) ) ;
#644 = CARTESIAN_POINT ( 'NONE',  ( 0.8090169943749472292, 0.5000000000000000000, 30.00000000000000000 ) ) ;
#645 = ORIENTED_EDGE ( 'NONE', *, *, #76, .T. ) ;
#646 = CARTESIAN_POINT ( 'NONE',  ( 0.0000000000000000000, 0.0000000000000000000, 27.99999999999999645 ) ) ;
#647 = LINE ( 'NONE', #443, #179 ) ;
#648 = ORIENTED_EDGE ( 'NONE', *, *, #273, .F. ) ;
#649 = AXIS2_PLACEMENT_3D ( 'NONE', #486, #741, #498 ) ;
#650 = ADVANCED_FACE ( 'NONE', ( #745 ), #50, .F. ) ;
#651 =( NAMED_UNIT ( * ) SI_UNIT ( $, .STERADIAN. ) SOLID_ANGLE_UNIT ( ) );
#652 = EDGE_CURVE ( 'NONE', #412, #736, #585, .T. ) ;
#653 = CARTESIAN_POINT ( 'NONE',  ( 14.10901699437495083, 2.500000000000000000, 30.00000000000000000 ) ) ;
#654 = AXIS2_PLACEMENT_3D ( 'NONE', #178, #573, #564 ) ;
#655 = ORIENTED_EDGE ( 'NONE', *, *, #112, .F. ) ;
#656 = AXIS2_PLACEMENT_3D ( 'NONE', #438, #164, #551 ) ;
#657 = ORIENTED_EDGE ( 'NONE', *, *, #566, .T. ) ;
#658 = VECTOR ( 'NONE', #124, 1000.000000000000000 ) ;
#659 = CARTESIAN_POINT ( 'NONE',  ( 16.39999999999999858, 0.0000000000000000000, 30.00000000000000000 ) ) ;
#660 = ADVANCED_FACE ( 'NONE', ( #609 ), #338, .T. ) ;
#661 = VERTEX_POINT ( 'NONE', #431 ) ;
#662 = FACE_OUTER_BOUND ( 'NONE', #75, .T. ) ;
#663 = CARTESIAN_POINT ( 'NONE',  ( -1.599999999999998535, 0.0000000000000000000, 27.99999999999999645 ) ) ;
#664 = DIRECTION ( 'NONE',  ( 1.000000000000000000, 0.0000000000000000000, 0.0000000000000000000 ) ) ;
#665 = APPLICATION_CONTEXT ( 'automotive_design' ) ;
#666 = DIRECTION ( 'NONE',  ( 0.0000000000000000000, 1.000000000000000000, -0.0000000000000000000 ) ) ;
#667 = PRODUCT_DEFINITION ( 'UNKNOWN', '', #79, #64 ) ;
#668 = DIRECTION ( 'NONE',  ( 0.0000000000000000000, 0.0000000000000000000, 1.000000000000000000 ) ) ;
#669 = VERTEX_POINT ( 'NONE', #102 ) ;
#670 = CYLINDRICAL_SURFACE ( 'NONE', #272, 1.400000000000000133 ) ;
#671 = ORIENTED_EDGE ( 'NONE', *, *, #286, .T. ) ;
#672 = PLANE ( 'NONE',  #649 ) ;
#673 = PRESENTATION_STYLE_ASSIGNMENT (( #100 ) ) ;
#674 = DIRECTION ( 'NONE',  ( -1.000000000000000000, 0.0000000000000000000, 0.0000000000000000000 ) ) ;
#675 = EDGE_CURVE ( 'NONE', #636, #194, #541, .T. ) ;
#676 = LINE ( 'NONE', #188, #253 ) ;
#677 = CARTESIAN_POINT ( 'NONE',  ( 0.8090169943749472292, 0.5000000000000000000, 0.0000000000000000000 ) ) ;
#678 = CARTESIAN_POINT ( 'NONE',  ( 0.6909830056250522157, 2.500000000000000000, 0.0000000000000000000 ) ) ;
#679 = ORIENTED_EDGE ( 'NONE', *, *, #750, .F. ) ;
#680 = CARTESIAN_POINT ( 'NONE',  ( 14.10901699437495083, 3.000000000000000000, 0.0000000000000000000 ) ) ;
#681 = DIRECTION ( 'NONE',  ( 1.000000000000000000, 0.0000000000000000000, 0.0000000000000000000 ) ) ;
#682 = CARTESIAN_POINT ( 'NONE',  ( 11.84000000000000341, 5.919999999999999929, 30.00000000000000000 ) ) ;
#683 = DIRECTION ( 'NONE',  ( -1.000000000000000000, 0.0000000000000000000, 0.0000000000000000000 ) ) ;
#684 = ORIENTED_EDGE ( 'NONE', *, *, #238, .T. ) ;
#685 = VECTOR ( 'NONE', #520, 1000.000000000000000 ) ;
#686 = ORIENTED_EDGE ( 'NONE', *, *, #51, .F. ) ;
#687 = DIRECTION ( 'NONE',  ( 0.0000000000000000000, 0.0000000000000000000, 1.000000000000000000 ) ) ;
#688 = DIRECTION ( 'NONE',  ( -0.0000000000000000000, -0.0000000000000000000, -1.000000000000000000 ) ) ;
#689 = ORIENTED_EDGE ( 'NONE', *, *, #110, .F. ) ;
#690 = EDGE_CURVE ( 'NONE', #355, #183, #290, .T. ) ;
#691 = CARTESIAN_POINT ( 'NONE',  ( 0.0000000000000000000, 3.000000000000000000, 30.00000000000000000 ) ) ;
#692 = LINE ( 'NONE', #461, #528 ) ;
#693 = PLANE ( 'NONE',  #611 ) ;
#694 = DIRECTION ( 'NONE',  ( -0.0000000000000000000, 0.0000000000000000000, 1.000000000000000000 ) ) ;
#695 = VERTEX_POINT ( 'NONE', #52 ) ;
#696 = EDGE_CURVE ( 'NONE', #701, #355, #59, .T. ) ;
#697 = AXIS2_PLACEMENT_3D ( 'NONE', #642, #635, #13 ) ;
#698 = DIRECTION ( 'NONE',  ( 0.0000000000000000000, -0.0000000000000000000, -1.000000000000000000 ) ) ;
#699 = VERTEX_POINT ( 'NONE', #279 ) ;
#700 = CIRCLE ( 'NONE', #347, 0.4999999999999998890 ) ;
#701 = VERTEX_POINT ( 'NONE', #58 ) ;
#702 = DIRECTION ( 'NONE',  ( 0.0000000000000000000, 0.0000000000000000000, -1.000000000000000000 ) ) ;
#703 = DIRECTION ( 'NONE',  ( 0.0000000000000000000, 0.0000000000000000000, -1.000000000000000000 ) ) ;
#704 = ORIENTED_EDGE ( 'NONE', *, *, #51, .T. ) ;
#705 = LINE ( 'NONE', #619, #490 ) ;
#706 = MECHANICAL_DESIGN_GEOMETRIC_PRESENTATION_REPRESENTATION (  '', ( #554 ), #622 ) ;
#707 = ORIENTED_EDGE ( 'NONE', *, *, #271, .T. ) ;
#708 = DIRECTION ( 'NONE',  ( 0.0000000000000000000, 0.0000000000000000000, 1.000000000000000000 ) ) ;
#709 = VECTOR ( 'NONE', #426, 1000.000000000000000 ) ;
#710 = VERTEX_POINT ( 'NONE', #169 ) ;
#711 = CARTESIAN_POINT ( 'NONE',  ( 7.399999999999999467, 0.0000000000000000000, 2.600000000000000089 ) ) ;
#712 = EDGE_CURVE ( 'NONE', #583, #695, #95, .T. ) ;
#713 = CIRCLE ( 'NONE', #383, 0.5000000000000000000 ) ;
#714 = CARTESIAN_POINT ( 'NONE',  ( 0.3618033988749893015, 0.7236067977499789361, 30.00000000000000000 ) ) ;
#715 = EDGE_CURVE ( 'NONE', #628, #661, #700, .T. ) ;
#716 = CARTESIAN_POINT ( 'NONE',  ( 1.190983005625052105, 2.500000000000000000, 30.00000000000000000 ) ) ;
#717 = ADVANCED_BREP_SHAPE_REPRESENTATION ( 'endstop mounting', ( #430, #25 ), #368 ) ;
#718 = CARTESIAN_POINT ( 'NONE',  ( 0.8090169943749472292, 0.0000000000000000000, 30.00000000000000000 ) ) ;
#719 = ADVANCED_FACE ( 'NONE', ( #69 ), #29, .F. ) ;
#720 = ORIENTED_EDGE ( 'NONE', *, *, #76, .F. ) ;
#721 = ORIENTED_EDGE ( 'NONE', *, *, #185, .T. ) ;
#722 = CARTESIAN_POINT ( 'NONE',  ( 13.99098300562505415, 0.0000000000000000000, 0.0000000000000000000 ) ) ;
#723 = ORIENTED_EDGE ( 'NONE', *, *, #382, .F. ) ;
#724 = VECTOR ( 'NONE', #589, 1000.000000000000114 ) ;
#725 = ADVANCED_FACE ( 'NONE', ( #367 ), #283, .T. ) ;
#726 = DIRECTION ( 'NONE',  ( 0.0000000000000000000, 0.0000000000000000000, 1.000000000000000000 ) ) ;
#727 = VECTOR ( 'NONE', #416, 1000.000000000000000 ) ;
#728 = LINE ( 'NONE', #140, #590 ) ;
#729 = CARTESIAN_POINT ( 'NONE',  ( 0.0000000000000000000, 0.0000000000000000000, 30.00000000000000000 ) ) ;
#730 = ORIENTED_EDGE ( 'NONE', *, *, #159, .F. ) ;
#731 = APPLICATION_CONTEXT ( 'automotive_design' ) ;
#732 = VECTOR ( 'NONE', #561, 1000.000000000000000 ) ;
#733 = CARTESIAN_POINT ( 'NONE',  ( 13.99098300562505415, 0.4999999999999995559, 0.0000000000000000000 ) ) ;
#734 = ORIENTED_EDGE ( 'NONE', *, *, #286, .F. ) ;
#735 = EDGE_CURVE ( 'NONE', #491, #70, #505, .T. ) ;
#736 = VERTEX_POINT ( 'NONE', #387 ) ;
#737 = CARTESIAN_POINT ( 'NONE',  ( 16.39999999999999858, 5.000000000000000000, 30.00000000000000000 ) ) ;
#738 = DIRECTION ( 'NONE',  ( -0.4472135954999578167, -0.8944271909999159664, 0.0000000000000000000 ) ) ;
#739 = ADVANCED_FACE ( 'NONE', ( #662 ), #494, .T. ) ;
#740 = EDGE_CURVE ( 'NONE', #701, #1, #638, .T. ) ;
#741 = DIRECTION ( 'NONE',  ( -1.000000000000000000, 0.0000000000000000000, 0.0000000000000000000 ) ) ;
#742 = EDGE_LOOP ( 'NONE', ( #83, #213, #707, #475 ) ) ;
#743 = CARTESIAN_POINT ( 'NONE',  ( 0.0000000000000000000, 5.000000000000000000, 27.99999999999999645 ) ) ;
#744 = ORIENTED_EDGE ( 'NONE', *, *, #72, .F. ) ;
#745 = FACE_OUTER_BOUND ( 'NONE', #375, .T. ) ;
#746 = EDGE_CURVE ( 'NONE', #5, #355, #647, .T. ) ;
#747 = DIRECTION ( 'NONE',  ( 0.0000000000000000000, 0.0000000000000000000, 1.000000000000000000 ) ) ;
#748 = LINE ( 'NONE', #466, #209 ) ;
#749 = DIRECTION ( 'NONE',  ( 0.0000000000000000000, -1.000000000000000000, 0.0000000000000000000 ) ) ;
#750 = EDGE_CURVE ( 'NONE', #636, #628, #168, .T. ) ;
ENDSEC;
END-ISO-10303-21;
